\relax 
\providecommand*{\memsetcounter}[2]{}
\providecommand\babel@aux[2]{}
\@nameuse{bbl@beforestart}
\catcode `"\active 
\babel@aux{british}{}
\@writefile{lof}{\addvspace {10pt}}
\@writefile{lot}{\addvspace {10pt}}
\@writefile{toc}{\contentsline {chapter}{\chapternumberline {1}The Beginning}{2}{}\protected@file@percent }
\@writefile{toc}{\contentsline {section}{\numberline {1.1}Hymn}{3}{}\protected@file@percent }
\@writefile{lof}{\addvspace {10pt}}
\@writefile{lot}{\addvspace {10pt}}
\@writefile{toc}{\contentsline {chapter}{\chapternumberline {2}Psalmody}{4}{}\protected@file@percent }
\@writefile{toc}{\contentsline {section}{\numberline {2.1}Psalms Outside Advent and Christmas}{4}{}\protected@file@percent }
\@writefile{toc}{\contentsline {subsection}{Psalm 53}{4}{}\protected@file@percent }
\babel@aux{latin}{}
\babel@aux{latin}{}
\babel@aux{latin}{}
\babel@aux{latin}{}
\babel@aux{latin}{}
\babel@aux{latin}{}
\babel@aux{latin}{}
\babel@aux{latin}{}
\babel@aux{latin}{}
\babel@aux{british}{}
\babel@aux{british}{}
\babel@aux{british}{}
\babel@aux{british}{}
\babel@aux{british}{}
\babel@aux{british}{}
\babel@aux{british}{}
\babel@aux{british}{}
\babel@aux{british}{}
\babel@aux{british}{}
\babel@aux{british}{}
\babel@aux{british}{}
\babel@aux{british}{}
\babel@aux{british}{}
\babel@aux{british}{}
\babel@aux{british}{}
\babel@aux{british}{}
\babel@aux{latin}{}
\babel@aux{british}{}
\babel@aux{british}{}
\babel@aux{latin}{}
\babel@aux{british}{}
\babel@aux{british}{}
\babel@aux{latin}{}
\babel@aux{british}{}
\babel@aux{british}{}
\babel@aux{latin}{}
\babel@aux{british}{}
\babel@aux{british}{}
\babel@aux{latin}{}
\babel@aux{british}{}
\babel@aux{british}{}
\babel@aux{latin}{}
\babel@aux{british}{}
\babel@aux{british}{}
\babel@aux{latin}{}
\babel@aux{british}{}
\babel@aux{british}{}
\babel@aux{latin}{}
\babel@aux{latin}{}
\babel@aux{british}{}
\babel@aux{british}{}
\@writefile{toc}{\contentsline {subsection}{Psalm 84}{5}{}\protected@file@percent }
\babel@aux{latin}{}
\babel@aux{latin}{}
\babel@aux{british}{}
\babel@aux{british}{}
\babel@aux{latin}{}
\babel@aux{latin}{}
\babel@aux{latin}{}
\babel@aux{latin}{}
\babel@aux{latin}{}
\babel@aux{latin}{}
\babel@aux{latin}{}
\babel@aux{latin}{}
\babel@aux{latin}{}
\babel@aux{latin}{}
\babel@aux{latin}{}
\babel@aux{latin}{}
\babel@aux{latin}{}
\babel@aux{latin}{}
\babel@aux{british}{}
\babel@aux{british}{}
\babel@aux{british}{}
\babel@aux{british}{}
\babel@aux{british}{}
\babel@aux{british}{}
\babel@aux{british}{}
\babel@aux{british}{}
\babel@aux{british}{}
\babel@aux{british}{}
\babel@aux{british}{}
\babel@aux{british}{}
\babel@aux{british}{}
\babel@aux{british}{}
\babel@aux{british}{}
\babel@aux{british}{}
\babel@aux{british}{}
\babel@aux{british}{}
\babel@aux{british}{}
\babel@aux{british}{}
\babel@aux{british}{}
\babel@aux{british}{}
\babel@aux{british}{}
\babel@aux{british}{}
\babel@aux{british}{}
\babel@aux{british}{}
\babel@aux{british}{}
\babel@aux{british}{}
\babel@aux{british}{}
\babel@aux{latin}{}
\babel@aux{british}{}
\babel@aux{british}{}
\babel@aux{latin}{}
\babel@aux{british}{}
\babel@aux{british}{}
\babel@aux{latin}{}
\babel@aux{british}{}
\babel@aux{british}{}
\babel@aux{latin}{}
\babel@aux{british}{}
\babel@aux{british}{}
\babel@aux{latin}{}
\babel@aux{british}{}
\babel@aux{british}{}
\babel@aux{latin}{}
\babel@aux{british}{}
\babel@aux{british}{}
\babel@aux{latin}{}
\babel@aux{british}{}
\babel@aux{british}{}
\babel@aux{latin}{}
\babel@aux{british}{}
\babel@aux{british}{}
\babel@aux{latin}{}
\babel@aux{british}{}
\babel@aux{british}{}
\babel@aux{latin}{}
\babel@aux{british}{}
\babel@aux{british}{}
\babel@aux{latin}{}
\babel@aux{british}{}
\babel@aux{british}{}
\babel@aux{latin}{}
\babel@aux{british}{}
\babel@aux{british}{}
\babel@aux{latin}{}
\babel@aux{british}{}
\babel@aux{british}{}
\babel@aux{latin}{}
\babel@aux{british}{}
\babel@aux{british}{}
\babel@aux{latin}{}
\babel@aux{latin}{}
\babel@aux{british}{}
\babel@aux{british}{}
\@writefile{toc}{\contentsline {subsection}{Psalm 116}{7}{}\protected@file@percent }
\babel@aux{latin}{}
\babel@aux{british}{}
\babel@aux{latin}{}
\babel@aux{british}{}
\babel@aux{british}{}
\@writefile{toc}{\contentsline {section}{\numberline {2.2}Psalms in Advent}{7}{}\protected@file@percent }
\newlabel{missusest}{{2.2}{7}{Psalms in Advent}{}{}}
\babel@aux{british}{}
\babel@aux{british}{}
\babel@aux{latin}{}
\babel@aux{latin}{}
\babel@aux{latin}{}
\babel@aux{latin}{}
\babel@aux{latin}{}
\babel@aux{latin}{}
\babel@aux{latin}{}
\babel@aux{latin}{}
\babel@aux{latin}{}
\babel@aux{british}{}
\babel@aux{british}{}
\babel@aux{british}{}
\babel@aux{british}{}
\babel@aux{british}{}
\babel@aux{british}{}
\babel@aux{british}{}
\babel@aux{british}{}
\babel@aux{british}{}
\babel@aux{british}{}
\babel@aux{british}{}
\babel@aux{british}{}
\babel@aux{british}{}
\babel@aux{british}{}
\babel@aux{british}{}
\babel@aux{british}{}
\babel@aux{british}{}
\babel@aux{latin}{}
\babel@aux{british}{}
\babel@aux{british}{}
\babel@aux{latin}{}
\babel@aux{british}{}
\babel@aux{british}{}
\babel@aux{latin}{}
\babel@aux{british}{}
\babel@aux{british}{}
\babel@aux{latin}{}
\babel@aux{british}{}
\babel@aux{british}{}
\babel@aux{latin}{}
\babel@aux{british}{}
\babel@aux{british}{}
\babel@aux{latin}{}
\babel@aux{british}{}
\babel@aux{british}{}
\babel@aux{latin}{}
\babel@aux{british}{}
\babel@aux{british}{}
\babel@aux{latin}{}
\babel@aux{latin}{}
\babel@aux{british}{}
\babel@aux{british}{}
\babel@aux{latin}{}
\babel@aux{latin}{}
\babel@aux{latin}{}
\babel@aux{latin}{}
\babel@aux{latin}{}
\babel@aux{latin}{}
\babel@aux{latin}{}
\babel@aux{latin}{}
\babel@aux{latin}{}
\babel@aux{latin}{}
\babel@aux{british}{}
\babel@aux{british}{}
\babel@aux{british}{}
\babel@aux{british}{}
\babel@aux{british}{}
\babel@aux{british}{}
\babel@aux{british}{}
\babel@aux{british}{}
\babel@aux{british}{}
\babel@aux{british}{}
\babel@aux{british}{}
\babel@aux{british}{}
\babel@aux{british}{}
\babel@aux{british}{}
\babel@aux{british}{}
\babel@aux{british}{}
\babel@aux{british}{}
\babel@aux{british}{}
\babel@aux{latin}{}
\babel@aux{latin}{}
\babel@aux{latin}{}
\babel@aux{latin}{}
\babel@aux{latin}{}
\babel@aux{latin}{}
\babel@aux{british}{}
\babel@aux{british}{}
\babel@aux{british}{}
\babel@aux{british}{}
\babel@aux{british}{}
\babel@aux{british}{}
\babel@aux{british}{}
\babel@aux{british}{}
\babel@aux{british}{}
\babel@aux{british}{}
\babel@aux{british}{}
\babel@aux{british}{}
\babel@aux{british}{}
\babel@aux{latin}{}
\babel@aux{british}{}
\babel@aux{british}{}
\babel@aux{latin}{}
\babel@aux{british}{}
\babel@aux{british}{}
\babel@aux{latin}{}
\babel@aux{british}{}
\babel@aux{british}{}
\babel@aux{latin}{}
\babel@aux{british}{}
\babel@aux{british}{}
\babel@aux{latin}{}
\babel@aux{british}{}
\babel@aux{british}{}
\babel@aux{latin}{}
\babel@aux{british}{}
\babel@aux{british}{}
\babel@aux{latin}{}
\babel@aux{british}{}
\babel@aux{british}{}
\babel@aux{latin}{}
\babel@aux{british}{}
\babel@aux{british}{}
\babel@aux{latin}{}
\babel@aux{british}{}
\babel@aux{british}{}
\babel@aux{latin}{}
\babel@aux{british}{}
\babel@aux{british}{}
\babel@aux{latin}{}
\babel@aux{british}{}
\babel@aux{british}{}
\babel@aux{latin}{}
\babel@aux{british}{}
\babel@aux{british}{}
\babel@aux{latin}{}
\babel@aux{british}{}
\babel@aux{british}{}
\babel@aux{latin}{}
\babel@aux{british}{}
\babel@aux{british}{}
\babel@aux{latin}{}
\babel@aux{latin}{}
\babel@aux{british}{}
\babel@aux{british}{}
\babel@aux{latin}{}
\babel@aux{latin}{}
\babel@aux{latin}{}
\babel@aux{latin}{}
\babel@aux{british}{}
\babel@aux{british}{}
\babel@aux{british}{}
\babel@aux{british}{}
\babel@aux{british}{}
\babel@aux{british}{}
\babel@aux{british}{}
\babel@aux{latin}{}
\babel@aux{british}{}
\babel@aux{british}{}
\babel@aux{latin}{}
\babel@aux{british}{}
\babel@aux{british}{}
\babel@aux{latin}{}
\babel@aux{latin}{}
\babel@aux{british}{}
\babel@aux{british}{}
\@writefile{toc}{\contentsline {section}{\numberline {2.3}Psalms in Christmastide}{11}{}\protected@file@percent }
\newlabel{oadmirabile}{{2.3}{11}{Psalms in Christmastide}{}{}}
\babel@aux{british}{}
\babel@aux{british}{}
\babel@aux{latin}{}
\babel@aux{latin}{}
\babel@aux{latin}{}
\babel@aux{latin}{}
\babel@aux{latin}{}
\babel@aux{latin}{}
\babel@aux{latin}{}
\babel@aux{latin}{}
\babel@aux{latin}{}
\babel@aux{british}{}
\babel@aux{british}{}
\babel@aux{british}{}
\babel@aux{british}{}
\babel@aux{british}{}
\babel@aux{british}{}
\babel@aux{british}{}
\babel@aux{british}{}
\babel@aux{british}{}
\babel@aux{british}{}
\babel@aux{british}{}
\babel@aux{british}{}
\babel@aux{british}{}
\babel@aux{british}{}
\babel@aux{british}{}
\babel@aux{british}{}
\babel@aux{british}{}
\babel@aux{latin}{}
\babel@aux{british}{}
\babel@aux{british}{}
\babel@aux{latin}{}
\babel@aux{british}{}
\babel@aux{british}{}
\babel@aux{latin}{}
\babel@aux{british}{}
\babel@aux{british}{}
\babel@aux{latin}{}
\babel@aux{british}{}
\babel@aux{british}{}
\babel@aux{latin}{}
\babel@aux{british}{}
\babel@aux{british}{}
\babel@aux{latin}{}
\babel@aux{british}{}
\babel@aux{british}{}
\babel@aux{latin}{}
\babel@aux{british}{}
\babel@aux{british}{}
\babel@aux{latin}{}
\babel@aux{latin}{}
\babel@aux{british}{}
\babel@aux{british}{}
\babel@aux{latin}{}
\babel@aux{latin}{}
\babel@aux{latin}{}
\babel@aux{latin}{}
\babel@aux{latin}{}
\babel@aux{latin}{}
\babel@aux{latin}{}
\babel@aux{latin}{}
\babel@aux{latin}{}
\babel@aux{latin}{}
\babel@aux{british}{}
\babel@aux{british}{}
\babel@aux{british}{}
\babel@aux{british}{}
\babel@aux{british}{}
\babel@aux{british}{}
\babel@aux{british}{}
\babel@aux{british}{}
\babel@aux{british}{}
\babel@aux{british}{}
\babel@aux{british}{}
\babel@aux{british}{}
\babel@aux{british}{}
\babel@aux{british}{}
\babel@aux{british}{}
\babel@aux{british}{}
\babel@aux{british}{}
\babel@aux{british}{}
\babel@aux{latin}{}
\babel@aux{latin}{}
\babel@aux{latin}{}
\babel@aux{latin}{}
\babel@aux{latin}{}
\babel@aux{latin}{}
\babel@aux{british}{}
\babel@aux{british}{}
\babel@aux{british}{}
\babel@aux{british}{}
\babel@aux{british}{}
\babel@aux{british}{}
\babel@aux{british}{}
\babel@aux{british}{}
\babel@aux{british}{}
\babel@aux{british}{}
\babel@aux{british}{}
\babel@aux{british}{}
\babel@aux{british}{}
\babel@aux{latin}{}
\babel@aux{british}{}
\babel@aux{british}{}
\babel@aux{latin}{}
\babel@aux{british}{}
\babel@aux{british}{}
\babel@aux{latin}{}
\babel@aux{british}{}
\babel@aux{british}{}
\babel@aux{latin}{}
\babel@aux{british}{}
\babel@aux{british}{}
\babel@aux{latin}{}
\babel@aux{british}{}
\babel@aux{british}{}
\babel@aux{latin}{}
\babel@aux{british}{}
\babel@aux{british}{}
\babel@aux{latin}{}
\babel@aux{british}{}
\babel@aux{british}{}
\babel@aux{latin}{}
\babel@aux{british}{}
\babel@aux{british}{}
\babel@aux{latin}{}
\babel@aux{british}{}
\babel@aux{british}{}
\babel@aux{latin}{}
\babel@aux{british}{}
\babel@aux{british}{}
\babel@aux{latin}{}
\babel@aux{british}{}
\babel@aux{british}{}
\babel@aux{latin}{}
\babel@aux{british}{}
\babel@aux{british}{}
\babel@aux{latin}{}
\babel@aux{british}{}
\babel@aux{british}{}
\babel@aux{latin}{}
\babel@aux{british}{}
\babel@aux{british}{}
\babel@aux{latin}{}
\babel@aux{latin}{}
\babel@aux{british}{}
\babel@aux{british}{}
\babel@aux{latin}{}
\babel@aux{latin}{}
\babel@aux{latin}{}
\babel@aux{latin}{}
\babel@aux{british}{}
\babel@aux{british}{}
\babel@aux{british}{}
\babel@aux{british}{}
\babel@aux{british}{}
\babel@aux{british}{}
\babel@aux{british}{}
\babel@aux{latin}{}
\babel@aux{british}{}
\babel@aux{british}{}
\babel@aux{latin}{}
\babel@aux{british}{}
\babel@aux{british}{}
\babel@aux{latin}{}
\babel@aux{latin}{}
\babel@aux{british}{}
\babel@aux{british}{}
\@writefile{lof}{\addvspace {10pt}}
\@writefile{lot}{\addvspace {10pt}}
\@writefile{toc}{\contentsline {chapter}{\chapternumberline {3}Little Chapter}{16}{}\protected@file@percent }
\newlabel{primechapteryear}{{3}{16}{Little Chapter}{}{}}
\babel@aux{latin}{}
\babel@aux{british}{}
\babel@aux{british}{}
\babel@aux{british}{}
\babel@aux{british}{}
\babel@aux{british}{}
\babel@aux{latin}{}
\babel@aux{british}{}
\babel@aux{british}{}
\newlabel{primechapteradvent}{{3}{16}{Little Chapter}{}{}}
\babel@aux{latin}{}
\babel@aux{british}{}
\babel@aux{british}{}
\babel@aux{british}{}
\babel@aux{british}{}
\babel@aux{british}{}
\babel@aux{latin}{}
\babel@aux{british}{}
\babel@aux{british}{}
\@writefile{lof}{\addvspace {10pt}}
\@writefile{lot}{\addvspace {10pt}}
\@writefile{toc}{\contentsline {chapter}{\chapternumberline {4}The End}{17}{}\protected@file@percent }
\babel@aux{latin}{}
\babel@aux{latin}{}
\babel@aux{latin}{}
\babel@aux{latin}{}
\babel@aux{british}{}
\babel@aux{british}{}
\babel@aux{british}{}
\babel@aux{british}{}
\babel@aux{british}{}
\babel@aux{british}{}
\babel@aux{british}{}
\babel@aux{latin}{}
\babel@aux{british}{}
\babel@aux{british}{}
\babel@aux{latin}{}
\babel@aux{british}{}
\babel@aux{british}{}
\babel@aux{latin}{}
\babel@aux{latin}{}
\babel@aux{british}{}
\babel@aux{british}{}
\babel@aux{latin}{}
\babel@aux{latin}{}
\babel@aux{latin}{}
\babel@aux{british}{}
\babel@aux{british}{}
\babel@aux{british}{}
\babel@aux{latin}{}
\babel@aux{british}{}
\babel@aux{british}{}
\babel@aux{latin}{}
\babel@aux{latin}{}
\babel@aux{british}{}
\babel@aux{british}{}
\babel@aux{latin}{}
\babel@aux{latin}{}
\babel@aux{latin}{}
\babel@aux{british}{}
\babel@aux{british}{}
\babel@aux{british}{}
\babel@aux{latin}{}
\babel@aux{british}{}
\babel@aux{british}{}
\babel@aux{latin}{}
\babel@aux{latin}{}
\babel@aux{british}{}
\babel@aux{british}{}
\babel@aux{latin}{}
\babel@aux{latin}{}
\babel@aux{latin}{}
\babel@aux{british}{}
\babel@aux{british}{}
\babel@aux{british}{}
\babel@aux{latin}{}
\babel@aux{british}{}
\babel@aux{british}{}
\babel@aux{latin}{}
\babel@aux{latin}{}
\babel@aux{british}{}
\babel@aux{british}{}
\babel@aux{latin}{}
\babel@aux{latin}{}
\babel@aux{latin}{}
\babel@aux{british}{}
\babel@aux{british}{}
\babel@aux{british}{}
\babel@aux{british}{}
\babel@aux{british}{}
\babel@aux{latin}{}
\babel@aux{british}{}
\babel@aux{british}{}
\babel@aux{latin}{}
\babel@aux{latin}{}
\babel@aux{british}{}
\babel@aux{british}{}
\babel@aux{latin}{}
\babel@aux{latin}{}
\babel@aux{latin}{}
\babel@aux{british}{}
\babel@aux{british}{}
\babel@aux{british}{}
\babel@aux{latin}{}
\babel@aux{british}{}
\babel@aux{british}{}
\babel@aux{latin}{}
\babel@aux{latin}{}
\babel@aux{british}{}
\babel@aux{british}{}
\memsetcounter{lastsheet}{12}
\memsetcounter{lastpage}{18}
\gdef \@abspage@last{18}
