\babel@toc {british}{}\relax 
\contentsline {chapter}{\chapternumberline {1}The Beginning}{2}{}%
\contentsline {section}{\numberline {1.1}Hymn}{3}{}%
\contentsline {chapter}{\chapternumberline {2}Psalmody}{4}{}%
\contentsline {section}{\numberline {2.1}Psalms Outside Advent and Christmas}{4}{}%
\contentsline {subsection}{Psalm 53}{4}{}%
\babel@toc {latin}{}\relax 
\babel@toc {latin}{}\relax 
\babel@toc {latin}{}\relax 
\babel@toc {latin}{}\relax 
\babel@toc {latin}{}\relax 
\babel@toc {latin}{}\relax 
\babel@toc {latin}{}\relax 
\babel@toc {latin}{}\relax 
\babel@toc {latin}{}\relax 
\babel@toc {british}{}\relax 
\babel@toc {british}{}\relax 
\babel@toc {british}{}\relax 
\babel@toc {british}{}\relax 
\babel@toc {british}{}\relax 
\babel@toc {british}{}\relax 
\babel@toc {british}{}\relax 
\babel@toc {british}{}\relax 
\babel@toc {british}{}\relax 
\babel@toc {british}{}\relax 
\babel@toc {british}{}\relax 
\babel@toc {british}{}\relax 
\babel@toc {british}{}\relax 
\babel@toc {british}{}\relax 
\babel@toc {british}{}\relax 
\babel@toc {british}{}\relax 
\babel@toc {british}{}\relax 
\babel@toc {latin}{}\relax 
\babel@toc {british}{}\relax 
\babel@toc {british}{}\relax 
\babel@toc {latin}{}\relax 
\babel@toc {british}{}\relax 
\babel@toc {british}{}\relax 
\babel@toc {latin}{}\relax 
\babel@toc {british}{}\relax 
\babel@toc {british}{}\relax 
\babel@toc {latin}{}\relax 
\babel@toc {british}{}\relax 
\babel@toc {british}{}\relax 
\babel@toc {latin}{}\relax 
\babel@toc {british}{}\relax 
\babel@toc {british}{}\relax 
\babel@toc {latin}{}\relax 
\babel@toc {british}{}\relax 
\babel@toc {british}{}\relax 
\babel@toc {latin}{}\relax 
\babel@toc {british}{}\relax 
\babel@toc {british}{}\relax 
\babel@toc {latin}{}\relax 
\babel@toc {latin}{}\relax 
\babel@toc {british}{}\relax 
\babel@toc {british}{}\relax 
\contentsline {subsection}{Psalm 84}{5}{}%
\babel@toc {latin}{}\relax 
\babel@toc {latin}{}\relax 
\babel@toc {british}{}\relax 
\babel@toc {british}{}\relax 
\babel@toc {latin}{}\relax 
\babel@toc {latin}{}\relax 
\babel@toc {latin}{}\relax 
\babel@toc {latin}{}\relax 
\babel@toc {latin}{}\relax 
\babel@toc {latin}{}\relax 
\babel@toc {latin}{}\relax 
\babel@toc {latin}{}\relax 
\babel@toc {latin}{}\relax 
\babel@toc {latin}{}\relax 
\babel@toc {latin}{}\relax 
\babel@toc {latin}{}\relax 
\babel@toc {latin}{}\relax 
\babel@toc {latin}{}\relax 
\babel@toc {british}{}\relax 
\babel@toc {british}{}\relax 
\babel@toc {british}{}\relax 
\babel@toc {british}{}\relax 
\babel@toc {british}{}\relax 
\babel@toc {british}{}\relax 
\babel@toc {british}{}\relax 
\babel@toc {british}{}\relax 
\babel@toc {british}{}\relax 
\babel@toc {british}{}\relax 
\babel@toc {british}{}\relax 
\babel@toc {british}{}\relax 
\babel@toc {british}{}\relax 
\babel@toc {british}{}\relax 
\babel@toc {british}{}\relax 
\babel@toc {british}{}\relax 
\babel@toc {british}{}\relax 
\babel@toc {british}{}\relax 
\babel@toc {british}{}\relax 
\babel@toc {british}{}\relax 
\babel@toc {british}{}\relax 
\babel@toc {british}{}\relax 
\babel@toc {british}{}\relax 
\babel@toc {british}{}\relax 
\babel@toc {british}{}\relax 
\babel@toc {british}{}\relax 
\babel@toc {british}{}\relax 
\babel@toc {british}{}\relax 
\babel@toc {british}{}\relax 
\babel@toc {latin}{}\relax 
\babel@toc {british}{}\relax 
\babel@toc {british}{}\relax 
\babel@toc {latin}{}\relax 
\babel@toc {british}{}\relax 
\babel@toc {british}{}\relax 
\babel@toc {latin}{}\relax 
\babel@toc {british}{}\relax 
\babel@toc {british}{}\relax 
\babel@toc {latin}{}\relax 
\babel@toc {british}{}\relax 
\babel@toc {british}{}\relax 
\babel@toc {latin}{}\relax 
\babel@toc {british}{}\relax 
\babel@toc {british}{}\relax 
\babel@toc {latin}{}\relax 
\babel@toc {british}{}\relax 
\babel@toc {british}{}\relax 
\babel@toc {latin}{}\relax 
\babel@toc {british}{}\relax 
\babel@toc {british}{}\relax 
\babel@toc {latin}{}\relax 
\babel@toc {british}{}\relax 
\babel@toc {british}{}\relax 
\babel@toc {latin}{}\relax 
\babel@toc {british}{}\relax 
\babel@toc {british}{}\relax 
\babel@toc {latin}{}\relax 
\babel@toc {british}{}\relax 
\babel@toc {british}{}\relax 
\babel@toc {latin}{}\relax 
\babel@toc {british}{}\relax 
\babel@toc {british}{}\relax 
\babel@toc {latin}{}\relax 
\babel@toc {british}{}\relax 
\babel@toc {british}{}\relax 
\babel@toc {latin}{}\relax 
\babel@toc {british}{}\relax 
\babel@toc {british}{}\relax 
\babel@toc {latin}{}\relax 
\babel@toc {british}{}\relax 
\babel@toc {british}{}\relax 
\babel@toc {latin}{}\relax 
\babel@toc {latin}{}\relax 
\babel@toc {british}{}\relax 
\babel@toc {british}{}\relax 
\contentsline {subsection}{Psalm 116}{7}{}%
\babel@toc {latin}{}\relax 
\babel@toc {british}{}\relax 
\babel@toc {latin}{}\relax 
\babel@toc {british}{}\relax 
\babel@toc {british}{}\relax 
\contentsline {section}{\numberline {2.2}Psalms in Advent}{7}{}%
\babel@toc {british}{}\relax 
\babel@toc {british}{}\relax 
\babel@toc {latin}{}\relax 
\babel@toc {latin}{}\relax 
\babel@toc {latin}{}\relax 
\babel@toc {latin}{}\relax 
\babel@toc {latin}{}\relax 
\babel@toc {latin}{}\relax 
\babel@toc {latin}{}\relax 
\babel@toc {latin}{}\relax 
\babel@toc {latin}{}\relax 
\babel@toc {british}{}\relax 
\babel@toc {british}{}\relax 
\babel@toc {british}{}\relax 
\babel@toc {british}{}\relax 
\babel@toc {british}{}\relax 
\babel@toc {british}{}\relax 
\babel@toc {british}{}\relax 
\babel@toc {british}{}\relax 
\babel@toc {british}{}\relax 
\babel@toc {british}{}\relax 
\babel@toc {british}{}\relax 
\babel@toc {british}{}\relax 
\babel@toc {british}{}\relax 
\babel@toc {british}{}\relax 
\babel@toc {british}{}\relax 
\babel@toc {british}{}\relax 
\babel@toc {british}{}\relax 
\babel@toc {latin}{}\relax 
\babel@toc {british}{}\relax 
\babel@toc {british}{}\relax 
\babel@toc {latin}{}\relax 
\babel@toc {british}{}\relax 
\babel@toc {british}{}\relax 
\babel@toc {latin}{}\relax 
\babel@toc {british}{}\relax 
\babel@toc {british}{}\relax 
\babel@toc {latin}{}\relax 
\babel@toc {british}{}\relax 
\babel@toc {british}{}\relax 
\babel@toc {latin}{}\relax 
\babel@toc {british}{}\relax 
\babel@toc {british}{}\relax 
\babel@toc {latin}{}\relax 
\babel@toc {british}{}\relax 
\babel@toc {british}{}\relax 
\babel@toc {latin}{}\relax 
\babel@toc {british}{}\relax 
\babel@toc {british}{}\relax 
\babel@toc {latin}{}\relax 
\babel@toc {latin}{}\relax 
\babel@toc {british}{}\relax 
\babel@toc {british}{}\relax 
\babel@toc {latin}{}\relax 
\babel@toc {latin}{}\relax 
\babel@toc {latin}{}\relax 
\babel@toc {latin}{}\relax 
\babel@toc {latin}{}\relax 
\babel@toc {latin}{}\relax 
\babel@toc {latin}{}\relax 
\babel@toc {latin}{}\relax 
\babel@toc {latin}{}\relax 
\babel@toc {latin}{}\relax 
\babel@toc {british}{}\relax 
\babel@toc {british}{}\relax 
\babel@toc {british}{}\relax 
\babel@toc {british}{}\relax 
\babel@toc {british}{}\relax 
\babel@toc {british}{}\relax 
\babel@toc {british}{}\relax 
\babel@toc {british}{}\relax 
\babel@toc {british}{}\relax 
\babel@toc {british}{}\relax 
\babel@toc {british}{}\relax 
\babel@toc {british}{}\relax 
\babel@toc {british}{}\relax 
\babel@toc {british}{}\relax 
\babel@toc {british}{}\relax 
\babel@toc {british}{}\relax 
\babel@toc {british}{}\relax 
\babel@toc {british}{}\relax 
\babel@toc {latin}{}\relax 
\babel@toc {latin}{}\relax 
\babel@toc {latin}{}\relax 
\babel@toc {latin}{}\relax 
\babel@toc {latin}{}\relax 
\babel@toc {latin}{}\relax 
\babel@toc {british}{}\relax 
\babel@toc {british}{}\relax 
\babel@toc {british}{}\relax 
\babel@toc {british}{}\relax 
\babel@toc {british}{}\relax 
\babel@toc {british}{}\relax 
\babel@toc {british}{}\relax 
\babel@toc {british}{}\relax 
\babel@toc {british}{}\relax 
\babel@toc {british}{}\relax 
\babel@toc {british}{}\relax 
\babel@toc {british}{}\relax 
\babel@toc {british}{}\relax 
\babel@toc {latin}{}\relax 
\babel@toc {british}{}\relax 
\babel@toc {british}{}\relax 
\babel@toc {latin}{}\relax 
\babel@toc {british}{}\relax 
\babel@toc {british}{}\relax 
\babel@toc {latin}{}\relax 
\babel@toc {british}{}\relax 
\babel@toc {british}{}\relax 
\babel@toc {latin}{}\relax 
\babel@toc {british}{}\relax 
\babel@toc {british}{}\relax 
\babel@toc {latin}{}\relax 
\babel@toc {british}{}\relax 
\babel@toc {british}{}\relax 
\babel@toc {latin}{}\relax 
\babel@toc {british}{}\relax 
\babel@toc {british}{}\relax 
\babel@toc {latin}{}\relax 
\babel@toc {british}{}\relax 
\babel@toc {british}{}\relax 
\babel@toc {latin}{}\relax 
\babel@toc {british}{}\relax 
\babel@toc {british}{}\relax 
\babel@toc {latin}{}\relax 
\babel@toc {british}{}\relax 
\babel@toc {british}{}\relax 
\babel@toc {latin}{}\relax 
\babel@toc {british}{}\relax 
\babel@toc {british}{}\relax 
\babel@toc {latin}{}\relax 
\babel@toc {british}{}\relax 
\babel@toc {british}{}\relax 
\babel@toc {latin}{}\relax 
\babel@toc {british}{}\relax 
\babel@toc {british}{}\relax 
\babel@toc {latin}{}\relax 
\babel@toc {british}{}\relax 
\babel@toc {british}{}\relax 
\babel@toc {latin}{}\relax 
\babel@toc {british}{}\relax 
\babel@toc {british}{}\relax 
\babel@toc {latin}{}\relax 
\babel@toc {latin}{}\relax 
\babel@toc {british}{}\relax 
\babel@toc {british}{}\relax 
\babel@toc {latin}{}\relax 
\babel@toc {latin}{}\relax 
\babel@toc {latin}{}\relax 
\babel@toc {latin}{}\relax 
\babel@toc {british}{}\relax 
\babel@toc {british}{}\relax 
\babel@toc {british}{}\relax 
\babel@toc {british}{}\relax 
\babel@toc {british}{}\relax 
\babel@toc {british}{}\relax 
\babel@toc {british}{}\relax 
\babel@toc {latin}{}\relax 
\babel@toc {british}{}\relax 
\babel@toc {british}{}\relax 
\babel@toc {latin}{}\relax 
\babel@toc {british}{}\relax 
\babel@toc {british}{}\relax 
\babel@toc {latin}{}\relax 
\babel@toc {latin}{}\relax 
\babel@toc {british}{}\relax 
\babel@toc {british}{}\relax 
\contentsline {section}{\numberline {2.3}Psalms in Christmastide}{11}{}%
\babel@toc {british}{}\relax 
\babel@toc {british}{}\relax 
\babel@toc {latin}{}\relax 
\babel@toc {latin}{}\relax 
\babel@toc {latin}{}\relax 
\babel@toc {latin}{}\relax 
\babel@toc {latin}{}\relax 
\babel@toc {latin}{}\relax 
\babel@toc {latin}{}\relax 
\babel@toc {latin}{}\relax 
\babel@toc {latin}{}\relax 
\babel@toc {british}{}\relax 
\babel@toc {british}{}\relax 
\babel@toc {british}{}\relax 
\babel@toc {british}{}\relax 
\babel@toc {british}{}\relax 
\babel@toc {british}{}\relax 
\babel@toc {british}{}\relax 
\babel@toc {british}{}\relax 
\babel@toc {british}{}\relax 
\babel@toc {british}{}\relax 
\babel@toc {british}{}\relax 
\babel@toc {british}{}\relax 
\babel@toc {british}{}\relax 
\babel@toc {british}{}\relax 
\babel@toc {british}{}\relax 
\babel@toc {british}{}\relax 
\babel@toc {british}{}\relax 
\babel@toc {latin}{}\relax 
\babel@toc {british}{}\relax 
\babel@toc {british}{}\relax 
\babel@toc {latin}{}\relax 
\babel@toc {british}{}\relax 
\babel@toc {british}{}\relax 
\babel@toc {latin}{}\relax 
\babel@toc {british}{}\relax 
\babel@toc {british}{}\relax 
\babel@toc {latin}{}\relax 
\babel@toc {british}{}\relax 
\babel@toc {british}{}\relax 
\babel@toc {latin}{}\relax 
\babel@toc {british}{}\relax 
\babel@toc {british}{}\relax 
\babel@toc {latin}{}\relax 
\babel@toc {british}{}\relax 
\babel@toc {british}{}\relax 
\babel@toc {latin}{}\relax 
\babel@toc {british}{}\relax 
\babel@toc {british}{}\relax 
\babel@toc {latin}{}\relax 
\babel@toc {latin}{}\relax 
\babel@toc {british}{}\relax 
\babel@toc {british}{}\relax 
\babel@toc {latin}{}\relax 
\babel@toc {latin}{}\relax 
\babel@toc {latin}{}\relax 
\babel@toc {latin}{}\relax 
\babel@toc {latin}{}\relax 
\babel@toc {latin}{}\relax 
\babel@toc {latin}{}\relax 
\babel@toc {latin}{}\relax 
\babel@toc {latin}{}\relax 
\babel@toc {latin}{}\relax 
\babel@toc {british}{}\relax 
\babel@toc {british}{}\relax 
\babel@toc {british}{}\relax 
\babel@toc {british}{}\relax 
\babel@toc {british}{}\relax 
\babel@toc {british}{}\relax 
\babel@toc {british}{}\relax 
\babel@toc {british}{}\relax 
\babel@toc {british}{}\relax 
\babel@toc {british}{}\relax 
\babel@toc {british}{}\relax 
\babel@toc {british}{}\relax 
\babel@toc {british}{}\relax 
\babel@toc {british}{}\relax 
\babel@toc {british}{}\relax 
\babel@toc {british}{}\relax 
\babel@toc {british}{}\relax 
\babel@toc {british}{}\relax 
\babel@toc {latin}{}\relax 
\babel@toc {latin}{}\relax 
\babel@toc {latin}{}\relax 
\babel@toc {latin}{}\relax 
\babel@toc {latin}{}\relax 
\babel@toc {latin}{}\relax 
\babel@toc {british}{}\relax 
\babel@toc {british}{}\relax 
\babel@toc {british}{}\relax 
\babel@toc {british}{}\relax 
\babel@toc {british}{}\relax 
\babel@toc {british}{}\relax 
\babel@toc {british}{}\relax 
\babel@toc {british}{}\relax 
\babel@toc {british}{}\relax 
\babel@toc {british}{}\relax 
\babel@toc {british}{}\relax 
\babel@toc {british}{}\relax 
\babel@toc {british}{}\relax 
\babel@toc {latin}{}\relax 
\babel@toc {british}{}\relax 
\babel@toc {british}{}\relax 
\babel@toc {latin}{}\relax 
\babel@toc {british}{}\relax 
\babel@toc {british}{}\relax 
\babel@toc {latin}{}\relax 
\babel@toc {british}{}\relax 
\babel@toc {british}{}\relax 
\babel@toc {latin}{}\relax 
\babel@toc {british}{}\relax 
\babel@toc {british}{}\relax 
\babel@toc {latin}{}\relax 
\babel@toc {british}{}\relax 
\babel@toc {british}{}\relax 
\babel@toc {latin}{}\relax 
\babel@toc {british}{}\relax 
\babel@toc {british}{}\relax 
\babel@toc {latin}{}\relax 
\babel@toc {british}{}\relax 
\babel@toc {british}{}\relax 
\babel@toc {latin}{}\relax 
\babel@toc {british}{}\relax 
\babel@toc {british}{}\relax 
\babel@toc {latin}{}\relax 
\babel@toc {british}{}\relax 
\babel@toc {british}{}\relax 
\babel@toc {latin}{}\relax 
\babel@toc {british}{}\relax 
\babel@toc {british}{}\relax 
\babel@toc {latin}{}\relax 
\babel@toc {british}{}\relax 
\babel@toc {british}{}\relax 
\babel@toc {latin}{}\relax 
\babel@toc {british}{}\relax 
\babel@toc {british}{}\relax 
\babel@toc {latin}{}\relax 
\babel@toc {british}{}\relax 
\babel@toc {british}{}\relax 
\babel@toc {latin}{}\relax 
\babel@toc {british}{}\relax 
\babel@toc {british}{}\relax 
\babel@toc {latin}{}\relax 
\babel@toc {latin}{}\relax 
\babel@toc {british}{}\relax 
\babel@toc {british}{}\relax 
\babel@toc {latin}{}\relax 
\babel@toc {latin}{}\relax 
\babel@toc {latin}{}\relax 
\babel@toc {latin}{}\relax 
\babel@toc {british}{}\relax 
\babel@toc {british}{}\relax 
\babel@toc {british}{}\relax 
\babel@toc {british}{}\relax 
\babel@toc {british}{}\relax 
\babel@toc {british}{}\relax 
\babel@toc {british}{}\relax 
\babel@toc {latin}{}\relax 
\babel@toc {british}{}\relax 
\babel@toc {british}{}\relax 
\babel@toc {latin}{}\relax 
\babel@toc {british}{}\relax 
\babel@toc {british}{}\relax 
\babel@toc {latin}{}\relax 
\babel@toc {latin}{}\relax 
\babel@toc {british}{}\relax 
\babel@toc {british}{}\relax 
\contentsline {chapter}{\chapternumberline {3}Little Chapter}{16}{}%
\babel@toc {latin}{}\relax 
\babel@toc {british}{}\relax 
\babel@toc {british}{}\relax 
\babel@toc {british}{}\relax 
\babel@toc {british}{}\relax 
\babel@toc {british}{}\relax 
\babel@toc {latin}{}\relax 
\babel@toc {british}{}\relax 
\babel@toc {british}{}\relax 
\babel@toc {latin}{}\relax 
\babel@toc {british}{}\relax 
\babel@toc {british}{}\relax 
\babel@toc {british}{}\relax 
\babel@toc {british}{}\relax 
\babel@toc {british}{}\relax 
\babel@toc {latin}{}\relax 
\babel@toc {british}{}\relax 
\babel@toc {british}{}\relax 
\contentsline {chapter}{\chapternumberline {4}The End}{17}{}%
\babel@toc {latin}{}\relax 
\babel@toc {latin}{}\relax 
\babel@toc {latin}{}\relax 
\babel@toc {latin}{}\relax 
\babel@toc {british}{}\relax 
\babel@toc {british}{}\relax 
\babel@toc {british}{}\relax 
\babel@toc {british}{}\relax 
\babel@toc {british}{}\relax 
\babel@toc {british}{}\relax 
\babel@toc {british}{}\relax 
\babel@toc {latin}{}\relax 
\babel@toc {british}{}\relax 
\babel@toc {british}{}\relax 
\babel@toc {latin}{}\relax 
\babel@toc {british}{}\relax 
\babel@toc {british}{}\relax 
\babel@toc {latin}{}\relax 
\babel@toc {latin}{}\relax 
\babel@toc {british}{}\relax 
\babel@toc {british}{}\relax 
\babel@toc {latin}{}\relax 
\babel@toc {latin}{}\relax 
\babel@toc {latin}{}\relax 
\babel@toc {british}{}\relax 
\babel@toc {british}{}\relax 
\babel@toc {british}{}\relax 
\babel@toc {latin}{}\relax 
\babel@toc {british}{}\relax 
\babel@toc {british}{}\relax 
\babel@toc {latin}{}\relax 
\babel@toc {latin}{}\relax 
\babel@toc {british}{}\relax 
\babel@toc {british}{}\relax 
\babel@toc {latin}{}\relax 
\babel@toc {latin}{}\relax 
\babel@toc {latin}{}\relax 
\babel@toc {british}{}\relax 
\babel@toc {british}{}\relax 
\babel@toc {british}{}\relax 
\babel@toc {latin}{}\relax 
\babel@toc {british}{}\relax 
\babel@toc {british}{}\relax 
\babel@toc {latin}{}\relax 
\babel@toc {latin}{}\relax 
\babel@toc {british}{}\relax 
\babel@toc {british}{}\relax 
\babel@toc {latin}{}\relax 
\babel@toc {latin}{}\relax 
\babel@toc {latin}{}\relax 
\babel@toc {british}{}\relax 
\babel@toc {british}{}\relax 
\babel@toc {british}{}\relax 
\babel@toc {latin}{}\relax 
\babel@toc {british}{}\relax 
\babel@toc {british}{}\relax 
\babel@toc {latin}{}\relax 
\babel@toc {latin}{}\relax 
\babel@toc {british}{}\relax 
\babel@toc {british}{}\relax 
\babel@toc {latin}{}\relax 
\babel@toc {latin}{}\relax 
\babel@toc {latin}{}\relax 
\babel@toc {british}{}\relax 
\babel@toc {british}{}\relax 
\babel@toc {british}{}\relax 
\babel@toc {british}{}\relax 
\babel@toc {british}{}\relax 
\babel@toc {latin}{}\relax 
\babel@toc {british}{}\relax 
\babel@toc {british}{}\relax 
\babel@toc {latin}{}\relax 
\babel@toc {latin}{}\relax 
\babel@toc {british}{}\relax 
\babel@toc {british}{}\relax 
\babel@toc {latin}{}\relax 
\babel@toc {latin}{}\relax 
\babel@toc {latin}{}\relax 
\babel@toc {british}{}\relax 
\babel@toc {british}{}\relax 
\babel@toc {british}{}\relax 
\babel@toc {latin}{}\relax 
\babel@toc {british}{}\relax 
\babel@toc {british}{}\relax 
\babel@toc {latin}{}\relax 
\babel@toc {latin}{}\relax 
\babel@toc {british}{}\relax 
\babel@toc {british}{}\relax 
